Data,Obitos absolutos,Obitos diarios
01/01/2022,619367,33
02/01/2022,619401,34
03/01/2022,619473,72
04/01/2022,619654,181
05/01/2022,619654,0
06/01/2022,619654,0
07/01/2022,619822,168
08/01/2022,619937,115
09/01/2022,620251,314
10/01/2022,620366,115
11/01/2022,620507,141
12/01/2022,620641,134
13/01/2022,620830,189
14/01/2022,621063,233
15/01/2022,621233,170
16/01/2022,621327,94
17/01/2022,621478,151
18/01/2022,621803,325
19/01/2022,622125,322
20/01/2022,622476,351
21/01/2022,622875,399
22/01/2022,623191,316
23/01/2022,623370,179
24/01/2022,623636,266
25/01/2022,624129,493
26/01/2022,624717,588
27/01/2022,625390,673
28/01/2022,626170,780
29/01/2022,626870,700
30/01/2022,627150,280
31/01/2022,627589,439
01/02/2022,628356,767
02/02/2022,629301,945
03/02/2022,630301,1000
04/02/2022,631265,964
05/02/2022,632095,830
06/02/2022,632514,419
07/02/2022,632946,432
08/02/2022,634118,1172
09/02/2022,635421,1303
10/02/2022,636338,917
11/02/2022,637467,1129
12/02/2022,638346,879
13/02/2022,638673,327
14/02/2022,639151,478
15/02/2022,640076,925
16/02/2022,641096,1020
17/02/2022,642156,1060
18/02/2022,643340,1184
19/02/2022,644195,855
20/02/2022,644592,397
21/02/2022,644918,326
22/02/2022,645735,817
23/02/2022,646714,979
24/02/2022,647703,989
25/02/2022,648496,793
26/02/2022,649184,688
27/02/2022,649437,253
28/02/2022,649676,239
01/03/2022,649922,246
02/03/2022,650254,332
03/03/2022,650824,570
04/03/2022,651522,698
05/03/2022,652216,694
06/03/2022,652438,222
07/03/2022,652648,210
08/03/2022,653134,486
09/03/2022,653767,633
10/03/2022,654380,613
11/03/2022,654843,463
12/03/2022,655234,391
13/03/2022,655359,125
14/03/2022,655557,198
15/03/2022,655878,321
16/03/2022,656231,353
17/03/2022,656693,462
18/03/2022,657098,405
19/03/2022,657389,291
20/03/2022,657495,106
21/03/2022,657595,100
22/03/2022,658005,410
23/03/2022,658286,281
24/03/2022,658600,314
25/03/2022,658855,255
26/03/2022,659046,191
27/03/2022,659159,113
28/03/2022,659227,68
29/03/2022,659508,281
30/03/2022,659769,261
31/03/2022,660022,253
01/04/2022,660265,243
02/04/2022,660371,106
03/04/2022,660410,39
04/04/2022,660570,160
05/04/2022,660786,216
06/04/2022,660980,194
